<?xml version="1.0" encoding="UTF-8" standalone="no"?>
<svg
   xmlns:osb="http://www.openswatchbook.org/uri/2009/osb"
   xmlns:dc="http://purl.org/dc/elements/1.1/"
   xmlns:cc="http://creativecommons.org/ns#"
   xmlns:rdf="http://www.w3.org/1999/02/22-rdf-syntax-ns#"
   xmlns:svg="http://www.w3.org/2000/svg"
   xmlns="http://www.w3.org/2000/svg"
   xmlns:xlink="http://www.w3.org/1999/xlink"
   xmlns:sodipodi="http://sodipodi.sourceforge.net/DTD/sodipodi-0.dtd"
   xmlns:inkscape="http://www.inkscape.org/namespaces/inkscape"
   width="210mm"
   height="297mm"
   viewBox="0 0 210 297"
   version="1.1"
   id="svg8"
   inkscape:version="1.0.2-2 (e86c870879, 2021-01-15)"
   sodipodi:docname="LOGO CGPAG.svg">
  <defs
     id="defs2">
    <linearGradient
       id="linearGradient3009"
       osb:paint="solid">
      <stop
         style="stop-color:#006680;stop-opacity:1;"
         offset="0"
         id="stop3007" />
    </linearGradient>
    <linearGradient
       inkscape:collect="always"
       id="linearGradient975">
      <stop
         style="stop-color:#87deaa;stop-opacity:1"
         offset="0"
         id="stop971" />
      <stop
         style="stop-color:#008066;stop-opacity:0;"
         offset="1"
         id="stop973" />
    </linearGradient>
    <linearGradient
       inkscape:collect="always"
       xlink:href="#linearGradient975"
       id="linearGradient1030"
       gradientUnits="userSpaceOnUse"
       x1="-125.41323"
       y1="95.40284"
       x2="-124.48038"
       y2="58.417046"
       gradientTransform="matrix(0.41789689,0,0,0.41789689,-253.77424,73.337305)" />
    <linearGradient
       inkscape:collect="always"
       xlink:href="#linearGradient3009"
       id="linearGradient3011"
       x1="-298.23519"
       y1="122.64063"
       x2="-255.83481"
       y2="122.64063"
       gradientUnits="userSpaceOnUse" />
  </defs>
  <sodipodi:namedview
     id="base"
     pagecolor="#ffffff"
     bordercolor="#666666"
     borderopacity="1.0"
     inkscape:pageopacity="0.0"
     inkscape:pageshadow="2"
     inkscape:zoom="1.4142136"
     inkscape:cx="-1330.7629"
     inkscape:cy="441.3529"
     inkscape:document-units="mm"
     inkscape:current-layer="layer1"
     inkscape:document-rotation="0"
     showgrid="false"
     showguides="true"
     inkscape:guide-bbox="true"
     inkscape:window-width="1920"
     inkscape:window-height="1017"
     inkscape:window-x="1912"
     inkscape:window-y="-8"
     inkscape:window-maximized="1" />
  <metadata
     id="metadata5">
    <rdf:RDF>
      <cc:Work
         rdf:about="">
        <dc:format>image/svg+xml</dc:format>
        <dc:type
           rdf:resource="http://purl.org/dc/dcmitype/StillImage" />
        <dc:title></dc:title>
      </cc:Work>
    </rdf:RDF>
  </metadata>
  <g
     inkscape:label="Layer 1"
     inkscape:groupmode="layer"
     id="layer1">
    <g
       id="g943"
       inkscape:export-filename="C:\Users\01467856738\PycharmProjects\Robo_Exant\logo.png"
       inkscape:export-xdpi="348"
       inkscape:export-ydpi="348">
      <text
         xml:space="preserve"
         style="font-style:normal;font-variant:normal;font-weight:bold;font-stretch:normal;font-size:4.42273px;line-height:1.25;font-family:sans-serif;-inkscape-font-specification:'sans-serif Bold';fill:#ffffff;fill-opacity:1;stroke:none;stroke-width:0.110569;"
         x="-315.1813"
         y="126.67875"
         id="text3015"
         inkscape:export-xdpi="348.73489"
         inkscape:export-ydpi="348.73489"><tspan
           sodipodi:role="line"
           id="tspan3013"
           x="-315.1813"
           y="126.67875"
           style="font-style:normal;font-variant:normal;font-weight:bold;font-stretch:normal;font-family:Corbel;-inkscape-font-specification:'Corbel Bold';fill:#ffffff;fill-opacity:1;stroke-width:0.110569;">INTEGRA</tspan></text>
      <text
         xml:space="preserve"
         style="font-style:normal;font-variant:normal;font-weight:bold;font-stretch:normal;font-size:9.00062px;line-height:1.25;font-family:'Franklin Gothic Heavy';-inkscape-font-specification:'Franklin Gothic Heavy, Bold';fill:#ffffff;fill-opacity:1;stroke:none;stroke-width:0.225016;"
         x="-285.02246"
         y="138.03716"
         id="text1059"
         transform="scale(1.1302445,0.88476432)"
         inkscape:export-xdpi="348.73489"
         inkscape:export-ydpi="348.73489"><tspan
           sodipodi:role="line"
           id="tspan1057"
           x="-285.02246"
           y="138.03716"
           style="font-style:normal;font-variant:normal;font-weight:bold;font-stretch:normal;font-family:'Franklin Gothic Heavy';-inkscape-font-specification:'Franklin Gothic Heavy, Bold';fill:#ffffff;fill-opacity:1;stroke-width:0.225016;">CGPAG</tspan></text>
      <rect
         style="opacity:0.997;fill:none;fill-opacity:1;stroke:#ffffff;stroke-width:0.418001;stroke-miterlimit:4;stroke-dasharray:none;stroke-opacity:1"
         id="rect1005"
         width="26.457277"
         height="26.457277"
         x="-160.98204"
         y="271.49503"
         ry="0"
         transform="rotate(44.865852)" />
      <g
         id="g883"
         transform="translate(-0.52916667)">
        <rect
           style="opacity:0.997;fill:none;fill-opacity:1;stroke:#ffffff;stroke-width:0.424247;stroke-miterlimit:4;stroke-dasharray:none;stroke-opacity:1"
           id="rect1009"
           width="29.70533"
           height="29.70533"
           x="-162.45607"
           y="269.82263"
           ry="0"
           transform="rotate(44.865852)" />
        <rect
           style="opacity:0.997;fill:none;fill-opacity:1;stroke:#87deaa;stroke-width:0.424248;stroke-miterlimit:4;stroke-dasharray:none;stroke-opacity:1"
           id="rect1026"
           width="29.70533"
           height="29.70533"
           x="-162.83546"
           y="270.12094"
           ry="0"
           transform="rotate(44.865852)" />
      </g>
      <ellipse
         style="fill:#000000;fill-opacity:1;stroke:none;stroke-width:0.918001;stroke-miterlimit:4;stroke-dasharray:none;stroke-opacity:1"
         id="path923"
         cx="-305.70288"
         cy="118.15819"
         rx="1.4265511"
         ry="0.92375028" />
      <text
         xml:space="preserve"
         style="font-style:normal;font-variant:normal;font-weight:bold;font-stretch:normal;font-size:9.00062px;line-height:1.25;font-family:'Franklin Gothic Heavy';-inkscape-font-specification:'Franklin Gothic Heavy, Bold';fill:#87deaa;fill-opacity:1;stroke:none;stroke-width:0.225016"
         x="-285.30368"
         y="137.71594"
         id="text1055"
         transform="scale(1.1302445,0.88476432)"
         inkscape:export-xdpi="348.73489"
         inkscape:export-ydpi="348.73489"><tspan
           sodipodi:role="line"
           id="tspan1053"
           x="-285.30368"
           y="137.71594"
           style="font-style:normal;font-variant:normal;font-weight:bold;font-stretch:normal;font-family:'Franklin Gothic Heavy';-inkscape-font-specification:'Franklin Gothic Heavy, Bold';fill:#87deaa;fill-opacity:1;stroke-width:0.225016">CGPAG</tspan></text>
      <text
         xml:space="preserve"
         style="font-style:normal;font-variant:normal;font-weight:bold;font-stretch:normal;font-size:4.42273px;line-height:1.25;font-family:sans-serif;-inkscape-font-specification:'sans-serif Bold';fill:#ff7f00;fill-opacity:1;stroke:none;stroke-width:0.110569"
         x="-315.43753"
         y="126.481"
         id="text1063"
         inkscape:export-xdpi="348.73489"
         inkscape:export-ydpi="348.73489"><tspan
           sodipodi:role="line"
           id="tspan1061"
           x="-315.43753"
           y="126.481"
           style="font-style:normal;font-variant:normal;font-weight:bold;font-stretch:normal;font-family:Corbel;-inkscape-font-specification:'Corbel Bold';fill:#ff7f00;fill-opacity:1;stroke-width:0.110569">INTEGRA</tspan></text>
      <path
         style="fill:#ffffff;fill-opacity:1;stroke:none;stroke-width:0.110743;stroke-linecap:butt;stroke-linejoin:miter;stroke-miterlimit:4;stroke-dasharray:none;stroke-opacity:1"
         d="m -305.47892,110.78906 c -2.89604,0.019 -5.37792,-4.38986 -5.27935,-10.67845 l -2.626,-2.515439 c -0.0986,6.468269 0.8897,15.242499 7.8777,15.654039 7.00342,-0.5247 8.87031,-9.79036 8.21007,-17.922489 l -2.40491,4.783889 c 0.0756,6.40155 -2.8923,10.65954 -5.77751,10.67845 z"
         id="path961"
         sodipodi:nodetypes="scscccs" />
      <path
         id="path926"
         style="fill:#ffffff;fill-opacity:1;stroke:#000000;stroke-width:0;stroke-linecap:butt;stroke-linejoin:miter;stroke-miterlimit:4;stroke-dasharray:none;stroke-opacity:1"
         d="m -306.07769,82.450739 c -5.67035,0 -10.26258,4.606047 -10.26257,10.276396 0,5.214372 3.84388,9.498085 8.87852,10.156975 v 4.81513 c 0,0.82038 0.66042,1.4808 1.4808,1.4808 0.82037,0 1.48013,-0.66042 1.48101,-1.4808 l 0.009,-4.83802 c 2.52337,-0.35998 4.69188,-1.65176 6.26289,-3.510768 0.6403,-0.892896 1.01282,-2.028013 1.01282,-3.210592 0,-3.007534 -2.43796,-5.445717 -5.4455,-5.445717 -2.06468,0 -4.25254,1.214204 -4.75531,2.841525 -0.0323,0.122 -0.0458,0.240943 -0.0458,0.373385 v 5.757123 c -3.23575,-0.7124 -5.71718,-3.621826 -5.71718,-7.071636 0,-3.984896 3.23057,-7.215245 7.21547,-7.215245 2.32985,0 4.40167,1.167111 5.72084,2.880828 l 1.49224,-2.756223 c -1.86245,-1.892961 -4.46196,-3.053161 -7.32732,-3.053161 z m 3.41704,11.312545 c 1.31244,0 2.37636,1.064139 2.37636,2.376576 0,0.718232 -0.3188,1.36183 -0.82386,1.800626 l -0.002,0.0033 c -0.94644,0.853372 -2.11292,1.47007 -3.39869,1.731089 l 0.0216,-5.047282 c 0.43592,-0.51777 1.0963,-0.864248 1.82611,-0.864248 z" />
      <rect
         style="opacity:0.997;fill:none;fill-opacity:1;stroke:#87deaa;stroke-width:0.918;stroke-miterlimit:4;stroke-dasharray:none;stroke-opacity:1"
         id="rect1018"
         width="26.457277"
         height="26.457277"
         x="-161.59161"
         y="272.16302"
         ry="0"
         transform="rotate(44.865852)" />
      <path
         style="fill:url(#linearGradient1030);fill-opacity:1;stroke:none;stroke-width:0.418001;stroke-linecap:butt;stroke-linejoin:miter;stroke-miterlimit:4;stroke-dasharray:none;stroke-opacity:1"
         d="m -306.15639,110.7457 c -2.89604,0.019 -5.37792,-4.38986 -5.27935,-10.67845 l -2.626,-2.515432 c -0.0986,6.468262 0.8897,15.242492 7.8777,15.654032 7.00342,-0.5247 8.58968,-9.25248 8.51409,-15.654032 l -2.70893,2.515432 c 0.0756,6.40155 -2.8923,10.65954 -5.77751,10.67845 z"
         id="path1020"
         sodipodi:nodetypes="scscccs" />
      <path
         id="path1022"
         style="fill:#87deaa;stroke:none;stroke-width:0.418001;stroke-linecap:butt;stroke-linejoin:miter;stroke-miterlimit:4;stroke-dasharray:none;stroke-opacity:1"
         d="m -306.03019,81.729189 c -5.67035,0 -10.26258,4.606047 -10.26257,10.276396 0,5.214372 3.84388,9.498085 8.87852,10.156975 v 4.81513 c 0,0.82038 0.66042,1.4808 1.4808,1.4808 0.82037,0 1.48013,-0.66042 1.48101,-1.4808 l 0.009,-4.83802 c 2.52337,-0.35998 4.69188,-1.65176 6.26289,-3.510768 0.6403,-0.892896 1.01282,-2.028013 1.01282,-3.210592 0,-3.007534 -2.43796,-5.445717 -5.4455,-5.445717 -2.06468,0 -4.25254,1.214204 -4.75531,2.841525 -0.0323,0.122 -0.0458,0.240943 -0.0458,0.373385 v 5.757123 c -3.23575,-0.7124 -5.71718,-3.621826 -5.71718,-7.071636 0,-3.984896 3.23057,-7.215245 7.21547,-7.215245 2.32985,0 4.40167,1.167111 5.72084,2.880828 l 1.49224,-2.756223 c -1.86245,-1.892961 -4.46196,-3.053161 -7.32732,-3.053161 z m 3.41704,11.312545 c 1.31244,0 2.37636,1.064139 2.37636,2.376576 0,0.718232 -0.3188,1.36183 -0.82386,1.800626 l -0.002,0.0033 c -0.94644,0.853372 -2.11292,1.47007 -3.39869,1.731089 l 0.0216,-5.047282 c 0.43592,-0.51777 1.0963,-0.864248 1.82611,-0.864248 z" />
    </g>
  </g>
</svg>
